{"page":1,"total_results":10000,"total_pages":500,"results":[{"popularity":605.149,"vote_count":2649,"video":false,"poster_path":"\/xBHvZcjRiWyobQ9kxBhO6B2dtRI.jpg","id":419704,"adult":false,"backdrop_path":"\/5BwqwxMEjeFtdknRV792Svo0K1v.jpg","original_language":"en","original_title":"Ad Astra","genre_ids":[12,18,9648,878,53],"title":"Ad Astra","vote_average":5.9,"overview":"The near future, a time when both hope and hardships drive humanity to look to the stars and beyond. While a mysterious phenomenon menaces to destroy life on planet Earth, astronaut Roy McBride undertakes a mission across the immensity of space and its many perils to uncover the truth about a lost expedition that decades before boldly faced emptiness and silence in search of the unknown.","release_date":"2019-09-17"},{"popularity":295.608,"vote_count":3460,"video":false,"poster_path":"\/db32LaOibwEliAmSL2jjDF6oDdj.jpg","id":181812,"adult":false,"backdrop_path":"\/jOzrELAzFxtMx2I4uDGHOotdfsS.jpg","original_language":"en","original_title":"Star Wars: The Rise of Skywalker","genre_ids":[28,12,878],"title":"Star Wars: The Rise of Skywalker","vote_average":6.5,"overview":"The surviving Resistance faces the First Order once again as the journey of Rey, Finn and Poe Dameron continues. With the power and knowledge of generations behind them, the final battle begins.","release_date":"2019-12-18"},{"popularity":317.991,"vote_count":655,"video":false,"poster_path":"\/4U7hpTK0XTQBKT5X60bKmJd05ha.jpg","id":570670,"adult":false,"backdrop_path":"\/uZMZyvarQuXLRqf3xdpdMqzdtjb.jpg","original_language":"en","original_title":"The Invisible Man","genre_ids":[27,878,53],"title":"The Invisible Man","vote_average":7.1,"overview":"When Cecilia's abusive ex takes his own life and leaves her his fortune, she suspects his death was a hoax. As a series of coincidences turn lethal, Cecilia works to prove that she is being hunted by someone nobody can see.","release_date":"2020-02-26"},{"popularity":259.677,"vote_count":208,"video":false,"poster_path":"\/8WUVHemHFH2ZIP6NWkwlHWsyrEL.jpg","id":338762,"adult":false,"backdrop_path":"\/ocUrMYbdjknu2TwzMHKT9PBBQRw.jpg","original_language":"en","original_title":"Bloodshot","genre_ids":[28,18,14,878],"title":"Bloodshot","vote_average":5.9,"overview":"After he and his wife are murdered, marine Ray Garrison is resurrected by a team of scientists. Enhanced with nanotechnology, he becomes a superhuman, biotech killing machine - Bloodshot. As Ray first trains with fellow super-soldiers, he cannot recall anything from his former life. But when his memories flood back and he remembers the man that killed both him and his wife, he breaks out of the facility to get revenge, only to discover that there's more to the conspiracy than he thought.","release_date":"2020-02-20"},{"popularity":211.317,"vote_count":2539,"video":false,"poster_path":"\/bB42KDdfWkOvmzmYkmK58ZlCa9P.jpg","id":512200,"adult":false,"backdrop_path":"\/hreiLoPysWG79TsyQgMzFKaOTF5.jpg","original_language":"en","original_title":"Jumanji: The Next Level","genre_ids":[28,12,35,14],"title":"Jumanji: The Next Level","vote_average":6.8,"overview":"As the gang return to Jumanji to rescue one of their own, they discover that nothing is as they expect. The players will have to brave parts unknown and unexplored in order to escape the world’s most dangerous game.","release_date":"2019-12-04"},{"popularity":142.193,"vote_count":707,"video":false,"poster_path":"\/z4A6mFOLTMZAhCSPRyrtzG0SPbd.jpg","id":475303,"adult":false,"backdrop_path":"\/6fkqwqLEcDZOEAnBBfKAniwNxtx.jpg","original_language":"en","original_title":"A Rainy Day in New York","genre_ids":[35,10749],"title":"A Rainy Day in New York","vote_average":6.7,"overview":"Two young people arrive in New York to spend a weekend, but once they arrive they're met with bad weather and a series of adventures.","release_date":"2019-07-26"},{"popularity":185.839,"vote_count":2848,"video":false,"poster_path":"\/kbC6I0AOSLTHFA2dieyat9h8QHP.jpg","id":39538,"adult":false,"backdrop_path":"\/57kqAPdVJTAJ4rnDTSVDx0f1JBu.jpg","original_language":"en","original_title":"Contagion","genre_ids":[18,878,53],"title":"Contagion","vote_average":6.4,"overview":"As an epidemic of a lethal airborne virus - that kills within days - rapidly grows, the worldwide medical community races to find a cure and control the panic that spreads faster than the virus itself.","release_date":"2011-09-08"},{"popularity":234.834,"vote_count":1406,"video":false,"poster_path":"\/aQvJ5WPzZgYVDrxLX4R6cLJCEaQ.jpg","id":454626,"adult":false,"backdrop_path":"\/stmYfCUGd8Iy6kAMBr6AmWqx8Bq.jpg","original_language":"en","original_title":"Sonic the Hedgehog","genre_ids":[28,35,878,10751],"title":"Sonic the Hedgehog","vote_average":7.3,"overview":"Based on the global blockbuster videogame franchise from Sega, Sonic the Hedgehog tells the story of the world’s speediest hedgehog as he embraces his new home on Earth. In this live-action adventure comedy, Sonic and his new best friend team up to defend the planet from the evil genius Dr. Robotnik and his plans for world domination.","release_date":"2020-02-12"},{"popularity":270.652,"vote_count":1648,"video":false,"poster_path":"\/h4VB6m0RwcicVEZvzftYZyKXs6K.jpg","id":495764,"adult":false,"backdrop_path":"\/2s1ofreBI8EFzIyL3SQrLRqO5Zx.jpg","original_language":"en","original_title":"Birds of Prey (and the Fantabulous Emancipation of One Harley Quinn)","genre_ids":[28,35,80],"title":"Birds of Prey (and the Fantabulous Emancipation of One Harley Quinn)","vote_average":6.9,"overview":"After her breakup with the Joker, Harley Quinn joins forces with singer Black Canary, assassin Huntress, and police detective Renee Montoya to help a young girl named Cassandra, who had a hit placed on her after she stole a rare diamond from crime lord Roman Sionis.","release_date":"2020-02-05"},{"popularity":158.431,"vote_count":14,"video":false,"poster_path":"\/iaTW57RK87v7ZrGkLKVofNH9YOr.jpg","id":505951,"adult":false,"backdrop_path":"\/cIXnYsJF0pxuRJabHpTTl1jckcw.jpg","original_language":"ta","original_title":"கண்ணும் கண்ணும் கொள்ளையடித்தால்","genre_ids":[35,18,10749],"title":"Kannum Kannum Kollaiyadithaal","vote_average":6.1,"overview":"Siddarth falls head-over-heels in love with Meera but things take a risky turn when they get into a messy situation with a dangerous man.","release_date":"2020-02-28"},{"popularity":160.759,"vote_count":3143,"video":false,"poster_path":"\/pjeMs3yqRmFL3giJy4PMXWZTTPa.jpg","id":330457,"adult":false,"backdrop_path":"\/xJWPZIYOEFIjZpBL7SVBGnzRYXp.jpg","original_language":"en","original_title":"Frozen II","genre_ids":[12,16,10751],"title":"Frozen II","vote_average":7.1,"overview":"Elsa, Anna, Kristoff and Olaf head far into the forest to learn the truth about an ancient mystery of their kingdom.","release_date":"2019-11-20"},{"popularity":217.464,"id":508439,"video":false,"vote_count":296,"vote_average":8,"title":"Onward","release_date":"2020-02-29","original_language":"en","original_title":"Onward","genre_ids":[16,12,35,10751,14],"backdrop_path":"\/xFxk4vnirOtUxpOEWgA1MCRfy6J.jpg","adult":false,"overview":"In a suburban fantasy world, two teenage elf brothers embark on an extraordinary quest to discover if there is still a little magic left out there.","poster_path":"\/f4aul3FyD3jv3v4bul1IrkWZvzq.jpg"},{"popularity":148.679,"id":614375,"video":false,"vote_count":4,"vote_average":9.6,"title":"F#*@BOIS","release_date":"2019-08-02","original_language":"tl","original_title":"F#*@BOIS","genre_ids":[18],"backdrop_path":null,"adult":false,"overview":"Ace, 23, and Miko, 17, desperately want to become famous actors but it seems the Universe has a different plan for their lives.","poster_path":"\/hjOX3eTRR37WdsTMXOcD0gF9BA7.jpg"},{"popularity":137.529,"vote_count":10254,"video":false,"poster_path":"\/udDclJoHjfjb8Ekgsd4FDteOkCU.jpg","id":475557,"adult":false,"backdrop_path":"\/n6bUvigpRFqSwmPp1m2YADdbRBc.jpg","original_language":"en","original_title":"Joker","genre_ids":[80,18,53],"title":"Joker","vote_average":8.2,"overview":"During the 1980s, a failed stand-up comedian is driven insane and turns to a life of crime and chaos in Gotham City while becoming an infamous psychopathic crime figure.","release_date":"2019-10-02"},{"popularity":127.457,"vote_count":3570,"video":false,"poster_path":"\/AuGiPiGMYMkSosOJ3BQjDEAiwtO.jpg","id":530915,"adult":false,"backdrop_path":"\/cqa3sa4c4jevgnEJwq3CMF8UfTG.jpg","original_language":"en","original_title":"1917","genre_ids":[28,18,53,10752],"title":"1917","vote_average":8,"overview":"At the height of the First World War, two young British soldiers must cross enemy territory and deliver a message that will stop a deadly attack on hundreds of soldiers.","release_date":"2019-12-25"},{"popularity":153.826,"vote_count":95,"video":false,"poster_path":"\/rmflsMjk4lxx2foNUtd1OKWv6vB.jpg","id":514847,"adult":false,"backdrop_path":"\/4MNaZCQI8dSeIQlhMxkjxqPrCvg.jpg","original_language":"en","original_title":"The Hunt","genre_ids":[28,27,53],"title":"The Hunt","vote_average":6.4,"overview":"Twelve strangers wake up in a clearing. They don't know where they are -- or how they got there. In the shadow of a dark internet conspiracy theory, ruthless elitists gather at a remote location to hunt humans for sport. But their master plan is about to be derailed when one of the hunted, Crystal, turns the tables on her pursuers.","release_date":"2020-03-11"},{"popularity":119.552,"vote_count":2707,"video":false,"poster_path":"\/86BnliVDBo2TjKmrgQTJIPHxAKd.jpg","id":7451,"adult":false,"backdrop_path":"\/gNI9gwuzVEnDYylNvMrMLcS7IzB.jpg","original_language":"en","original_title":"xXx","genre_ids":[28,12,53],"title":"xXx","vote_average":5.8,"overview":"Xander Cage is your standard adrenaline junkie with no fear and a lousy attitude. When the US Government \"recruits\" him to go on a mission, he's not exactly thrilled. His mission: to gather information on an organization that may just be planning the destruction of the world, led by the nihilistic Yorgi.","release_date":"2002-08-09"},{"popularity":197.337,"vote_count":0,"video":false,"poster_path":"\/g0c40ySJ1zW8dVwuCETgJcl3q7c.jpg","id":625985,"adult":false,"backdrop_path":"\/j4B8G5yKRnTO655uvpQBXt4Ok08.jpg","original_language":"ja","original_title":"仮面ライダージオウNEXT TIME：ゲイツ、マジェスティ","genre_ids":[28,12,878],"title":"Kamen Rider Zi-O NEXT TIME: Geiz, Majesty","vote_average":0,"overview":"Geiz, Majesty is the first installment of the Kamen Rider Zi-O NEXT TIME series of V-Cinema films for Kamen Rider Zi-O. It focuses on the character Geiz Myokoin.","release_date":"2020-04-22"},{"popularity":111.008,"vote_count":5523,"video":false,"poster_path":"\/7IiTTgloJzvGI1TAYymCfbfl3vT.jpg","id":496243,"adult":false,"backdrop_path":"\/TU9NIjwzjoKPwQHoHshkFcQUCG.jpg","original_language":"ko","original_title":"기생충","genre_ids":[35,18,53],"title":"Parasite","vote_average":8.5,"overview":"All unemployed, Ki-taek's family takes peculiar interest in the wealthy and glamorous Parks for their livelihood until they get entangled in an unexpected incident.","release_date":"2019-05-30"},{"popularity":117.389,"id":546554,"video":false,"vote_count":2944,"vote_average":7.8,"title":"Knives Out","release_date":"2019-11-27","original_language":"en","original_title":"Knives Out","genre_ids":[9648,35],"backdrop_path":"\/cjTQSwcsfVdirSFSHNBXRGkxmWa.jpg","adult":false,"overview":"When renowned crime novelist Harlan Thrombey is found dead at his estate just after his 85th birthday, the inquisitive and debonair Detective Benoit Blanc is mysteriously enlisted to investigate. From Harlan's dysfunctional family to his devoted staff, Blanc sifts through a web of red herrings and self-serving lies to uncover the truth behind Harlan's untimely death.","poster_path":"\/pThyQovXQrw2m0s9x82twj48Jq4.jpg"}]}